{
    "Royal Challengers Bangalore": 39,
    "Rising Pune Supergiant": 5,
    "Kolkata Knight Riders": 46,
    "Kings XI Punjab": 32,
    "Sunrisers Hyderabad": 17,
    "Mumbai Indians": 49,
    "Gujarat Lions": 11,
    "Delhi Daredevils": 35,
    "Chennai Super Kings": 42,
    "Rajasthan Royals": 36,
    "Deccan Chargers": 19,
    "Kochi Tuskers Kerala": 5,
    "Pune Warriors": 3,
    "Rising Pune Supergiants": 3
}